^D:\BITBUCKET\CODENAMESTORMOLOW\CODE SOURCE\GAME SOURCE\CN_STORMOLOW\DATABASE.CPP|D:\BITBUCKET\CODENAMESTORMOLOW\CODE SOURCE\GAME SOURCE\CN_STORMOLOW\SOURCE.CPP
D:\BITBUCKET\CODENAMESTORMOLOW\CODE SOURCE\GAME SOURCE\CN_STORMOLOW\DEBUG\VC120.PDB
D:\BITBUCKET\CODENAMESTORMOLOW\CODE SOURCE\GAME SOURCE\CN_STORMOLOW\DEBUG\VC120.IDB
D:\BITBUCKET\CODENAMESTORMOLOW\CODE SOURCE\GAME SOURCE\CN_STORMOLOW\DEBUG\SOURCE.SBR
D:\BITBUCKET\CODENAMESTORMOLOW\CODE SOURCE\GAME SOURCE\CN_STORMOLOW\DEBUG\DATABASE.SBR
D:\BITBUCKET\CODENAMESTORMOLOW\CODE SOURCE\GAME SOURCE\CN_STORMOLOW\DEBUG\DATABASE.OBJ
D:\BITBUCKET\CODENAMESTORMOLOW\CODE SOURCE\GAME SOURCE\CN_STORMOLOW\DEBUG\SOURCE.OBJ
^D:\BITBUCKET\CODENAMESTORMOLOW\CODE SOURCE\GAME SOURCE\CN_STORMOLOW\DATABASE.CPP
D:\BITBUCKET\CODENAMESTORMOLOW\CODE SOURCE\GAME SOURCE\CN_STORMOLOW\DEBUG\VC120.PDB
^D:\BITBUCKET\CODENAMESTORMOLOW\CODE SOURCE\GAME SOURCE\CN_STORMOLOW\SOURCE.CPP
D:\BITBUCKET\CODENAMESTORMOLOW\CODE SOURCE\GAME SOURCE\CN_STORMOLOW\DEBUG\VC120.PDB
D:\BITBUCKET\CODENAMESTORMOLOW\CODE SOURCE\GAME SOURCE\CN_STORMOLOW\DEBUG\VC120.IDB
D:\BITBUCKET\CODENAMESTORMOLOW\CODE SOURCE\GAME SOURCE\CN_STORMOLOW\DEBUG\SOURCE.SBR
D:\BITBUCKET\CODENAMESTORMOLOW\CODE SOURCE\GAME SOURCE\CN_STORMOLOW\DEBUG\SOURCE.OBJ
