ID + 500;Name (30);Description (72);Location (72);Type;Buy;Sell;Requires1;Requires2;Requires3
500;Pomegranate Seed;A small embryonic plant of Pomegranate;Can be found by traveling;Natural;6;1;999;999;999
501;Rambutan Seed;A small embryonic plant of Rambutan;Can be found by traveling;Natural;5;1;999;999;999
502;Urucu Seed;A small embryonic plant of Urucu;Can be found by traveling;Natural;6;1;999;999;999
503;Ebony Sapling;A young tree of Ebony;Can be found by traveling;Natural;6;1;999;999;999
504;Blackwood Sapling;A young tree of Blackwood;Can be found by traveling;Natural;4;1;999;999;999
505;Agarwood Sapling;A young tree of Agarwood;Can be found by traveling;Natural;5;1;999;999;999
506;Plant Leaf;An organ of a vascular plant;Can be found by traveling;Natural;4;2;999;999;999
507;Clay;Raw material which is plastic and watertight;Can be found by traveling;Natural;8;4;999;999;999
508;Rock;An ordinary, dark gray rock;Can be found by traveling;Natural;2;1;999;999;999
509;Water;Pure drinkable water;Can be found by traveling;Natural;3;2;999;999;999
510;Cotton;Basic fabric material;Can be found by traveling;Natural;6;4;999;999;999
511;Wool;Quality advanced fabric material;Can be found by traveling;Natural;6;4;999;999;999
512;Lumber;Piece of wood that can be used as material;Can be found by traveling;Natural;3;1;999;999;999
513;Red Flower;Outstanding flower of red color;Can be found by traveling;Natural;2;1;999;999;999
514;Blue Flower;Outstanding flower of blue color;Can be found by traveling;Natural;2;1;999;999;999
515;Honey;Sweet food made by bees using nectar from flowers;Can be found by traveling;Natural;6;4;999;999;999
516;Ice;Water frozen into the solid state;Can be found by traveling;Natural;8;5;999;999;999
517;Soil;Nutritious dirt;Can be found by traveling;Natural;3;1;999;999;999
518;Oil;Crude oil, it is usually flammable and slippery;Can be found by traveling;Natural;7;4;999;999;999
519;Crystal;Strong and shiny material usable in crafting;Can be found by traveling;Natural;10;6;999;999;999
520;Chromite;Extremely strong metal but corrosive;Can be found by traveling;Natural;9;6;999;999;999
521;Chirraja Fur;Soft thin outer covering of Chirraja;Can be found by killing Chirraja;Loot;15;7;999;999;999
522;Chirraja Meat;Edible tissue of Chirraja;Can be found by killing Chirraja;Loot;10;5;999;999;999
523;Gileeran Bear Hide;Soft thick outer covering of Gileeran Bear;Can be found by killing Gileeran Bear;Loot;15;4;999;999;999
524;Gileeran Bear Meat;Edible tissue of Gileeran Bear;Can be found by killing Gileeran Bear;Loot;10;8;999;999;999
525;Sabre-toothed Tiger Hide;Hard thick outer covering of Sabre-toothed Tiger;Can be found by killing Sabre-toothed Tiger;Loot;15;9;999;999;999
526;Sabre-toothed Tiger Meat;Edible tissue of Sabre-toothed Tiger;Can be found by killing Sabre-toothed Tiger;Loot;10;5;999;999;999
527;BeeBear Fur;Hard thin outer covering of BeeBear;Can be found by killing BeeBear;Loot;15;3;999;999;999
528;BeeBear Meat;Edible tissue of BeeBear;Can be found by killing BeeBear;Loot;10;10;999;999;999
529;Feather Arrow;Sharp iron projectile;Can be found by killing Yumar Hunter;Loot;2;2;999;999;999
530;Fat;A watter resisting substance;Can be found by killing Yumar Hunter;Loot;2;1;999;999;999
531;Bone;A mineralfull limestone;Can be found by killing Mindless Skeleton;Loot;2;1;999;999;999
532;Life Essence;Energy, fighting to be released;Can be found by killing Mindless Skeleton;Loot;3;2;999;999;999
533;Tooth;Strong natural knife;Can be found by killing Sparklefree Vampire;Loot;3;2;999;999;999
534;Sparkly Dust;Sparkly particles from Vampire;Can be found by killing Sparklefree Vampire;Loot;2;1;999;999;999
535;Paper;Thin layer of compressed wood;Can be found by killing Vermoor Assassin;Loot;5;3;999;999;999
536;Silk;More advanced clothing;Can be found by killing Vermoor Assassin;Loot;3;1;999;999;999
537;Mysterious Runes;Uncomprehensable words of an ancient langage;Can be found by killing Sharawin Spellbinder;Loot;4;2;999;999;999
538;Magical Orb;Enchanted glass sphere;Can be found by killing Sharawin Spellbinder;Loot;6;4;999;999;999
539;Broken Teddy;A broken emotion stabelisator;Can be found by killing Teddycaring Giant;Loot;8;6;999;999;999
540;Giants Ear;Toxicant Gaints flesh;Can be found by killing Teddycaring Giant;Loot;4;3;999;999;999
541;Enemy Lvl 9;;Can be found by killing Earthling Scout;Loot;0;0;999;999;999
542;Keycard;A luminous green object;Can be found by killing Earthling Scout;Loot;30;1;999;999;999
543;Enemy Lvl 10;;Can be found by killing Enchanted Bunny;Loot;0;0;999;999;999
544;Enemy Lvl 10;;Can be found by killing Enchanted Bunny;Loot;0;0;999;999;999
545;Pomegranate;Fully grown fruit of a Pomegranate;A product from the farm;Farm;40;30;999;999;999
546;Rambutan;Fully grown fruit of a Rambutan;A product from the farm;Farm;40;25;999;999;999
547;Urucu;Fully grown fruit of an Urucu;A product from the farm;Farm;40;31;999;999;999
548;Ebony Log;Low quality Log of Ebony;A product from the farm;Farm;40;29;999;999;999
549;Blackwood Log;Medium quality Log of Blackwood;A product from the farm;Farm;40;24;999;999;999
550;Agarwood Log;High quality Log of Agarwood;A product from the farm;Farm;40;27;999;999;999
551;Coal Ore;A combustible red rock;A product from the deep depths of Luikach Mine;Mine;9;5;999;999;999
552;Iron Ore;Heavy metal;A product from the deep depths of Luikach Mine;Mine;10;5;999;999;999
553;Mineral Ore;Shiny red crystal;A product from the deep depths of Luikach Mine;Mine;11;6;999;999;999
554;Sand Ore;White deformable clay;A product from the deep depths of Luikach Mine;Mine;12;7;999;999;999
555;Gravel;A collection of stone fragments;A product from the deep depths of Luikach Mine;Mine;0;0;999;999;999
556;In_Progress_6;;A product from the deep depths of Luikach Mine;Mine;0;0;999;999;999
557;Diamond;A blue, light shathering saphire;A product from crafting;Craft;50;25;551;551;551
558;Anthracite;A fine blue crystal;A product from crafting;Craft;0;0;551;551;999
559;Peat;Minor crystal shards;A product from crafting;Craft;0;0;551;999;999
560;Bronze;A softer metal alloy;A product from crafting;Craft;0;0;560;999;999
561;Iron bar;Purified iron ore;A product from crafting;Craft;0;0;560;560;999
562;Steel;Forged iron, know for durability;A product from crafting;Craft;0;0;560;560;560
563;Energy Block;High quality pure mineral block;A product from crafting;Craft;0;0;553;553;553
564;Vigor Stone;Medium quaility mineral stone;A product from crafting;Craft;0;0;553;553;999
565;Brio Rock;Low quaility mineral rock;A product from crafting;Craft;0;0;553;999;999
566;Sand Block;Most expensive, rare block made of sand;A product from crafting;Craft;0;0;554;554;554
567;Sand Stone;Very expensive, rare stone made of sand;A product from crafting;Craft;0;0;554;554;999
568;Sand Rock;Expnesive, rare rock made of sand;A product from crafting;Craft;0;0;554;999;999
569;Plastic Ring;Stylish fashion object;A product from crafting;Craft;0;0;573;573;999
570;Plastic Necklace;Stylish fashion object;A product from crafting;Craft;0;0;573;573;573
571;Diamond Ring;Shiney fashion object;A product from crafting;Craft;0;0;557;557;999
572;Diamond Necklace;Shiney fashion object;A product from crafting;Craft;0;0;557;557;557
573;Plastatic Material;Crafting material, for all uses;A product from crafting;Craft;0;0;508;507;507
574;Red Paint;Ordinary paint of strong red color;A product from crafting;Craft;0;0;513;513;509
575;Blue Paint;Ordinary paint of strong blue color;A product from crafting;Craft;0;0;514;514;509
576;Stawy Night Painting;Very beautiful copy of famous Stawy Night;A product from crafting;Craft;0;0;575;575;575
577;Harmony in Redish Painting;Very beautiful copy of famous Harmony in Redish;A product from crafting;Craft;0;0;574;574;574
578;Glourious City Portrait;Beautiful hand made potrait of the City;A product from crafting;Craft;0;0;574;574;575
579;Stunning Nature Potrait;Beautiful hand made potrait of the Nature;A product from crafting;Craft;0;0;575;575;574
580;Grindstone;A wanted tool for farming;A product from crafting;Craft;0;0;508;508;557
581;;;A product from crafting;Craft;0;0;999;999;999
582;;;A product from crafting;Craft;0;0;999;999;999
583;;;A product from crafting;Craft;0;0;999;999;999
584;;;A product from crafting;Craft;0;0;999;999;999
585;;;A product from crafting;Craft;0;0;999;999;999
586;;;A product from crafting;Craft;0;0;999;999;999
587;;;A product from crafting;Craft;0;0;999;999;999
588;;;A product from crafting;Craft;0;0;999;999;999
589;;;A product from crafting;Craft;0;0;999;999;999
590;;;A product from crafting;Craft;0;0;999;999;999
591;;;A product from crafting;Craft;0;0;999;999;999
592;;;A product from crafting;Craft;0;0;999;999;999
593;;;A product from crafting;Craft;0;0;999;999;999
594;;;A product from crafting;Craft;0;0;999;999;999
595;;;A product from crafting;Craft;0;0;999;999;999
596;;;A product from crafting;Craft;0;0;999;999;999
597;Lightning rod;This should be able to misdirect the forcefield.;A product from crafting;Craft;0;0;999;999;999
598;Lightning rod;This should be able to misdirect the forcefield.;A product from crafting;Craft;0;0;999;999;999
599;Binocular;;A product from crafting;Craft;0;0;999;999;999
600;Glass;;A product from crafting;Craft;0;0;999;999;999
601;Wire;;A product from crafting;Craft;0;0;999;999;999