ID;Region Name;Area 1;Area 1 ID 1;Area 1 ID 2;Area 2;Area 2 ID 1;Area 2 ID 2;Area 3;Area 3 ID 1;Area 3 ID 2;Area 3 ID 3
0;MEADOW;GROUND;513;517;TREE;515;503;PASTURE;509;510;500
1;FORREST;GROUND;514;506;TREE;512;504;CREEK;507;518;501
2;KARST;GROUND;516;508;TREE;520;505;CAVE;519;511;502